<?xml version="1.0" encoding="UTF-8"?>
<!DOCTYPE svg PUBLIC "-//W3C//DTD SVG 1.1//EN" "http://www.w3.org/Graphics/SVG/1.1/DTD/svg11.dtd">
<!-- Creator: CorelDRAW -->
<svg xmlns="http://www.w3.org/2000/svg" xml:space="preserve" width="1358.6mm" height="709.864mm" version="1.1" style="shape-rendering:geometricPrecision; text-rendering:geometricPrecision; image-rendering:optimizeQuality; fill-rule:evenodd; clip-rule:evenodd"
viewBox="0 0 42115 22004.93"
 xmlns:xlink="http://www.w3.org/1999/xlink"
 xmlns:xodm="http://www.corel.com/coreldraw/odm/2003">
 <defs>
  <style type="text/css">
   <![CDATA[
    .fil13 {fill:white}
    .fil9 {fill:#E6E7E8}
    .fil17 {fill:#D2D4D5}
    .fil0 {fill:#E1E1E1}
    .fil4 {fill:#400F69}
    .fil11 {fill:#511185}
    .fil14 {fill:#571091}
    .fil3 {fill:#57178C}
    .fil10 {fill:#661F9F}
    .fil7 {fill:#C25827}
    .fil12 {fill:#C76132}
    .fil16 {fill:#D4E3F2}
    .fil15 {fill:#DCB2FF}
    .fil5 {fill:#F9B101}
    .fil6 {fill:#FF7D41}
    .fil1 {fill:white}
    .fil19 {fill:white;fill-rule:nonzero}
    .fil18 {fill:#400F69;fill-rule:nonzero}
    .fil8 {fill:url(#id0)}
    .fil2 {fill:url(#id1)}
   ]]>
  </style>
  <linearGradient id="id0" gradientUnits="userSpaceOnUse" x1="32374.04" y1="19032.33" x2="35857.85" y2="14891.65">
   <stop offset="0" style="stop-opacity:1; stop-color:#33114F"/>
   <stop offset="0.184314" style="stop-opacity:1; stop-color:#42126A"/>
   <stop offset="0.529412" style="stop-opacity:1; stop-color:#521385"/>
   <stop offset="1" style="stop-opacity:1; stop-color:#320E4F"/>
  </linearGradient>
  <linearGradient id="id1" gradientUnits="userSpaceOnUse" x1="34373.94" y1="11863.33" x2="40749.75" y2="7369.51">
   <stop offset="0" style="stop-opacity:1; stop-color:#803A1A"/>
   <stop offset="0.270588" style="stop-opacity:1; stop-color:#A34D26"/>
   <stop offset="1" style="stop-opacity:1; stop-color:#C76132"/>
  </linearGradient>
 </defs>
 <g id="Layer_x0020_1">
  <metadata id="CorelCorpID_0Corel-Layer"/>
  <path class="fil0" d="M9510.36 20627.95c-451.05,676.49 -1151.76,1151.18 -1954.84,1315.32 -83.91,17.15 -168.58,29.47 -253.61,39.65 -1467.22,175.77 -2850.75,-717.66 -3307.23,-2103.61 -262.05,-102.8 -509.18,-240.95 -734.08,-410.39 -1515.52,81.43 -2890.89,-968.89 -3197.79,-2470.55 -341.37,-1670.27 743.12,-3312.62 2413.49,-3654 497.88,-101.76 1012.89,-77.5 1498.05,67.47 580.42,-336.23 1048.06,-789.52 1288.1,-1415.8 -132.11,-138.51 -240.36,-298.93 -319.37,-474.66 -19.33,-43 -38.31,-86.17 -56.94,-129.48 -10.94,-0.69 -21.87,-1.37 -32.8,-2.06 -425.58,-26.72 -850.69,-62.16 -1274.86,-105.91 -367.37,-37.89 -678,-221.59 -888.2,-525.26 -210.19,-303.67 -272.74,-659.04 -178.86,-1016.23 265.51,-1010.19 770.73,-2304.53 1461.4,-3127.71 39.85,-839.47 201.2,-1674.91 529.26,-2451.03 740.25,-1751.27 2173.37,-2843.14 3702.02,-3875.36 771.32,-520.84 1826.47,-316.5 2347.38,454.84 788.87,1168.11 1538.38,2397.64 1842.84,3784.82l26369.19 -2164.23c711.16,-58.37 1361.23,-21.64 1967.94,387.46 254.88,171.86 480.78,386.15 723.95,574.29 526.94,407.74 760.75,1050.77 618.78,1701.73 -461.43,2115.9 -784.94,4260.21 -1291.81,6366.53 -485.02,2015.56 -529,3844.87 -2366.74,5119.3 -236.49,1088.89 -484.78,2403.51 -1188.71,3269.79 -462.01,568.56 -1066.85,904.34 -1764.72,1102.83 -960.75,273.27 -2076.53,286.14 -3067.67,238.97 -5.64,-0.19 -11.28,-0.42 -16.92,-0.65l-21298.82 -921.12c-293.02,172.07 -612.23,294.2 -945.86,362.38 -204.95,41.89 -413.68,62.89 -622.59,62.65zm53.5 -6191.07c28.48,0.45 56.94,1.29 85.4,2.52l261.56 -2015.33c-144,-45.32 -287.59,-91.94 -430.6,-140.26 -104.27,103.24 -216.43,205.14 -326.14,279.27 -48.44,32.73 -98.56,62.88 -150.11,90.35 -25.94,616.52 172.83,1219.25 522.35,1729.73 12.35,18.02 24.85,35.93 37.54,53.71z"/>
  <path class="fil1" d="M11255.35 5000.71l27538.64 -2260.21c1469.06,-116.43 1724.08,338.18 2429.32,883.87 411.46,318.39 591.49,813.47 480.61,1321.76 -459.78,2108.4 -786.8,4267.41 -1290,6358.63 -488.12,2028.31 -507.98,3791.19 -2335.94,4978.36 -648.9,2929.37 -878.38,4691.58 -5669.02,4462.88 -5.44,-0.15 -10.07,-0.35 -15.47,-0.58l-22071.54 -954.54c-102.13,-4.39 -201.06,-19.9 -295.65,-45.44l-674.72 -31.61 128.56 -1035.02 1775.2 -13678.1z"/>
  <path class="fil2" d="M38688.04 3905.73l1335.63 738.82c136.92,82.41 98.74,222.64 86.38,324.3 -909.06,7480.18 -1732.59,9534.97 -4521.15,10358.27l-589.66 -662.94 3688.8 -10758.45z"/>
  <path class="fil3" d="M7539.36 13317.71c-498.15,3023.99 1199.22,4184.92 -1572.89,4962.85l25921.24 1400.6c1000.45,31.49 2576.97,-634.76 3105.16,-2204.58l412.08 -3220.7 -27865.58 -938.17z"/>
  <path class="fil4" d="M7539.36 13317.71l-736.02 4468.05c-82.11,85.57 -145.12,283.25 -229.68,324.41l-1620.24 454.65 7996.83 93.1c284.57,-537.41 281.84,-938.84 150.87,-1579.62 -271.7,-1329.34 -1475.82,-2236.77 -2798.71,-2168.7 -56.76,-72.08 -111.34,-145.9 -163.16,-221.55 -310.3,-453.21 -510.78,-962.08 -571.55,-1492.07l-2028.36 121.72z"/>
  <path class="fil5" d="M21357.33 8695.61c439.48,64.03 819.8,-32.97 1222.04,-118.45 175.17,-37.2 49.18,1.17 160.01,-83.19 173.3,-131.86 453.79,-243.55 287.33,-704.96 -100.34,-278.07 -267.31,-285.54 -614.27,-285.97 -1190.9,-1.52 -738.63,60.45 -963.4,722.22 -68.38,201.26 -87.78,184.93 -91.71,470.35z"/>
  <path class="fil6" d="M38688.04 3905.73c-934.45,7566.29 -2298.93,9602.73 -3283.09,10350.14l-27955.66 -453.29 1874.95 -7675.8 29363.8 -2221.06z"/>
  <path class="fil7" d="M9703.51 13812.78l-2244.35 -8.12 2040.37 -7691.12 3584.22 -271.12c24.69,777.93 -163.7,1665.11 -447.8,2440.12 367.84,994.94 334.4,2451.98 214.01,3401.28 -32.58,256.92 -162.46,465.14 -378.84,607.39 -216.42,142.24 -459.04,178.94 -707.76,107.02 -485.75,-140.38 -982.15,-290.2 -1461.25,-459.47 -160.71,168.17 -325.97,328.3 -434.7,401.78 -92.64,62.59 -192.39,112.5 -296.46,149.2 -56.45,451.81 -6.37,899.49 132.57,1323.04z"/>
  <path class="fil8" d="M32335.2 19667.05l-924.26 -5.64c988.21,-103.25 2598.58,-692.09 3072.04,-2099.38l921.97 -3306.15 1415.99 553.24 -619.05 2548.82c-802.7,2599.2 -2494.08,2284.85 -3866.69,2309.11z"/>
  <path class="fil1" d="M5699.28 11879.54c-175.87,-131.87 -318.51,-307.62 -410.99,-513.35 -50.19,-111.61 -97.89,-224.47 -143.45,-338.18 -90.5,-4.78 -180.15,-10.42 -267.77,-15.9 -419.27,-26.36 -841.73,-61.54 -1259.75,-104.65 -257.43,-26.55 -468.52,-151.38 -615.82,-364.18 -147.3,-212.8 -189.79,-454.3 -124.01,-704.61 243.32,-925.7 756.05,-2289.83 1468.24,-3075.85 26.82,-838.66 177.51,-1676.96 504.99,-2451.75 707.37,-1673.46 2104.44,-2722.67 3565.21,-3709.05 599.26,-404.65 1417.12,-246.39 1821.93,352.99 975.03,1443.83 1889.53,2977.26 1920.01,4773.41 14.27,840.99 -158.34,1675.17 -447.14,2463.06 367.84,994.93 334.41,2451.98 214.01,3401.27 -32.58,256.93 -162.46,465.14 -378.84,607.39 -216.42,142.24 -459.04,178.94 -707.76,107.02 -485.74,-140.38 -982.14,-290.2 -1461.24,-459.47 -160.71,168.17 -325.97,328.3 -434.7,401.78 -92.64,62.59 -192.39,112.51 -296.46,149.2 -97.35,779.29 121.99,1546.42 568.32,2198.32 51.82,75.65 106.4,149.48 163.16,221.55 1322.89,-68.07 2527.01,839.35 2798.71,2168.69 300.08,1468.2 -650.54,2907.21 -2118.74,3207.25 -249.74,51.04 -503.05,66.36 -753.36,46.81 -378.96,674.25 -1036.3,1170.18 -1824.06,1331.16 -73.86,15.12 -148.04,25.7 -222.83,34.68 -1355.31,162.34 -2616.85,-710.29 -2953.55,-2019.77 -338.29,-107.33 -652.4,-279.98 -924.14,-507.44 -1385.24,146.17 -2665.4,-786.45 -2945.58,-2157.34 -300.04,-1468.05 650.35,-2907.37 2118.47,-3207.4 490.14,-100.18 993.54,-61.42 1461.16,107.92 809.73,-431.2 1435.51,-1052.08 1686.02,-1943.57z"/>
  <path class="fil9" d="M9571.73 15723.81c-388.09,-224.09 -432.12,-236.21 -692.44,-617.26 -852.38,-1244.61 -790.03,-2427.38 -670.97,-3041.58l-1239.82 -240.53c-294.84,1520.33 -1367.45,2391.45 -2391.54,2886.58 -119.78,67.4 -246.57,64.69 -381.36,-16.75 -335.8,-144.04 -715.72,-193.29 -1100.8,-114.59 -1007.28,205.86 -1657.35,1189.94 -1451.41,2197.63 196,958.87 1096.92,1592.36 2051.84,1473.73 48.32,-5.87 96.85,-11.97 145.45,-21.88 66.49,-13.62 131.24,-31.06 194.5,-51.32 297.96,376.46 733.56,626.48 1214.49,690.65 -216.06,-230.99 -357.08,-535.16 -367.58,-884.88 387.26,801.15 1022.63,1221.93 1911.44,1262.72 -468.79,170.23 -970.25,71.45 -1342.88,-201.08 4.79,87.12 13.57,174.78 31.64,263.19 195.46,956.36 1091.87,1589.07 2044.19,1475.09 50.87,-6.19 101.97,-12.94 153.27,-23.39 769.36,-157.27 1328.65,-768.48 1459.3,-1497.32 340,148.89 726.84,199.26 1118.09,119.35 1007.66,-205.97 1657.61,-1189.91 1451.69,-2197.49 -201.88,-987.66 -1150.87,-1629.49 -2137.11,-1460.87l0 0z"/>
  <path class="fil6" d="M9199.13 15636.55c-388.09,-224.09 -432.12,-236.21 -692.44,-617.25 -852.39,-1244.62 -790.03,-2427.39 -670.97,-3041.58l-1239.82 -240.53c-294.84,1520.32 -1367.45,2391.45 -2391.54,2886.58 -119.78,67.4 -246.57,64.69 -381.36,-16.75 -335.79,-144.03 -715.72,-193.28 -1100.8,-114.58 -1007.28,205.86 -1657.35,1189.93 -1451.41,2197.63 196,958.87 1096.92,1592.36 2051.84,1473.73 48.32,-5.87 96.85,-11.98 145.45,-21.88 66.49,-13.62 131.24,-31.06 194.5,-51.32 297.96,376.46 733.56,626.48 1214.49,690.65 -216.06,-230.99 -357.08,-535.16 -367.58,-884.88 387.26,801.15 1022.63,1221.93 1911.44,1262.72 -468.79,170.23 -970.25,71.45 -1342.88,-201.08 4.78,87.12 13.57,174.78 31.64,263.19 195.46,956.36 1091.87,1589.07 2044.19,1475.09 50.87,-6.19 101.97,-12.94 153.27,-23.39 769.36,-157.27 1328.65,-768.47 1459.3,-1497.32 340,148.89 726.84,199.26 1118.09,119.35 1007.66,-205.97 1657.62,-1189.9 1451.69,-2197.48 -201.88,-987.66 -1150.87,-1629.49 -2137.11,-1460.88l0 0z"/>
  <path class="fil9" d="M8781.34 6493.57c-463.2,94.66 -915.35,-203.91 -1010.05,-667.25 -94.63,-463.01 204.07,-915.27 667.27,-1009.93 463.34,-94.7 915.39,204.13 1010.02,667.14 94.69,463.34 -203.91,915.35 -667.25,1010.05zm987.83 -5057.44c-141.18,-209.42 -425.7,-263.48 -633.82,-122.76 -1362.92,920.14 -2635.96,1866.18 -3255.86,3333.06 -327.03,773.33 -450.95,1631.63 -441.41,2488.4 -906.29,696.68 -1492.43,2923.53 -1492.43,2923.53 0,0 634.82,64.9 1225.6,101.82 319.14,20.23 625.63,32.18 812.33,21.12 102.26,297.71 210.61,580.14 325.74,836.19 60.5,134.66 184.05,232.75 329.42,262.11l1722.15 332.48c119.94,23.53 242.86,-2.19 342.72,-69.53 20.86,-14.21 470.73,-465.07 675.42,-703.96 85.55,40.68 202.5,87.39 335.91,136.65 617.95,228.11 1601.38,512 1601.38,512 0,0 288.35,-2284.54 -293.74,-3268.59 330.39,-792.19 535.16,-1634.79 520.17,-2473.54 -26.23,-1591.04 -890.86,-3002.24 -1773.56,-4308.97l0 0z"/>
  <path class="fil10" d="M8377.07 6323.21c-463.2,94.67 -915.35,-203.91 -1010.04,-667.25 -94.63,-463.01 204.07,-915.27 667.27,-1009.93 463.34,-94.69 915.39,204.13 1010.02,667.14 94.69,463.34 -203.91,915.35 -667.25,1010.04zm987.83 -5057.44c-141.19,-209.42 -425.7,-263.47 -633.82,-122.75 -1362.93,920.14 -2635.96,1866.18 -3255.86,3333.06 -327.03,773.33 -450.95,1631.63 -441.41,2488.4 -906.29,696.68 -1492.43,2923.53 -1492.43,2923.53 0,0 634.82,64.9 1225.6,101.82 319.13,20.23 625.63,32.18 812.32,21.12 102.26,297.71 210.61,580.13 325.74,836.19 60.5,134.66 184.05,232.75 329.43,262.11l1722.14 332.47c119.94,23.53 242.86,-2.19 342.72,-69.53 20.86,-14.21 470.73,-465.07 675.42,-703.96 85.55,40.68 202.49,87.39 335.91,136.65 617.94,228.11 1601.38,512 1601.38,512 0,0 288.35,-2284.54 -293.74,-3268.59 330.4,-792.19 535.16,-1634.79 520.17,-2473.54 -26.23,-1591.04 -890.86,-3002.24 -1773.56,-4308.97l0 0z"/>
  <path class="fil11" d="M9383.99 1276.58c-141.18,-209.42 -425.67,-263.48 -633.82,-122.73 2167.71,6810.47 -1051.48,9378.08 -2515.71,9955.4l1693.96 323.08c289.5,55.22 396.49,-89.9 417.45,-104.05 20.86,-14.21 443.3,-410.4 647.96,-649.28 85.58,40.7 202.53,87.41 335.89,136.71 617.97,228.07 1601.4,511.96 1601.4,511.96 0,0 288.32,-2284.53 -293.75,-3268.59 330.4,-792.19 535.16,-1634.82 520.18,-2473.54 -26.23,-1591.04 -890.85,-3002.21 -1773.56,-4308.97l0 0z"/>
  <path class="fil12" d="M5618.21 16514.17c98.07,-1106.06 -1696.32,-1726.57 -2533.74,-714.89 -9.04,10.95 279.08,-1059.54 1471.19,-747.1 1595.55,418.2 1057.36,1520.44 1062.55,1461.99z"/>
  <path class="fil13" d="M5547.26 16608.51c98.07,-1106.06 -1696.32,-1726.57 -2533.74,-714.89 -9.04,10.95 279.08,-1059.54 1471.18,-747.1 1595.56,418.19 1057.36,1520.44 1062.55,1461.99z"/>
  <path class="fil12" d="M10011.09 17128.16c-77.42,-1107.7 -1947.16,-1437.75 -2614.72,-306.76 -7.21,12.24 108.66,-1090.27 1335.1,-969.56 1641.52,161.59 1283.7,1334.86 1279.62,1276.32z"/>
  <path class="fil13" d="M10030.37 16989.04c-77.42,-1107.7 -1947.16,-1437.75 -2614.73,-306.76 -7.21,12.24 108.66,-1090.27 1335.1,-969.56 1641.52,161.59 1283.7,1334.86 1279.62,1276.32z"/>
  <path class="fil12" d="M5780.28 16773.03c-651.31,537.17 -29.72,1840.06 965.05,1753.64 10.75,-0.95 -722.72,414.31 -1189.72,-398 -625.04,-1087.24 259.09,-1384.02 224.67,-1355.64z"/>
  <path class="fil13" d="M5957.2 16714.86c-651.32,537.17 -29.72,1840.06 965.05,1753.64 10.75,-0.95 -722.72,414.31 -1189.72,-398 -625.04,-1087.24 259.09,-1384.02 224.67,-1355.64z"/>
  <path class="fil14" d="M5586.73 10023.97c-507.98,-1023.39 -543.77,-2111.7 -552.96,-3059.5 -462.87,1415.76 -160.54,3058.85 552.96,3059.5z"/>
  <path class="fil4" d="M8994.6 10683.06c876.69,-776.72 1318.95,-1733.17 1642.8,-2623.98 15.82,1160.9 -632.93,3041.43 -1273.83,2776.51l-368.98 -152.53z"/>
  <path class="fil15" d="M8564.51 1753.18c-1498.41,735.71 -2788.68,2464.77 -2784.09,3519.22 515.17,-1252.25 1385.63,-2436.35 2784.09,-3519.22z"/>
  <ellipse class="fil15" cx="5747.92" cy="5437.85" rx="35.44" ry="75.93"/>
  <ellipse class="fil15" cx="5739.48" cy="5687.61" rx="43.88" ry="82.69"/>
  <path class="fil7" d="M15995.9 10664.59c-1470.73,-560.28 -1984.21,-1483.23 -1775.52,-2699.93 520.44,-1533.09 2247.41,-1748.17 3955.34,-1602.38 909.26,-89.7 1650.96,-75.78 2011.56,875.26l-1167.01 1627.67c-368.54,-286.63 -934.75,-580.95 -1428.05,-629.57 -1156.77,-92.13 -1031.36,694.83 -153.56,829.19 716.91,119.37 1838.09,731.12 2026.91,1474.12l1028.81 -4330.21 1744.26 -616.37 512.98 478.17 -629.58 2748.61 2410.79 -2871.45 4631.08 -846.7 512.97 478.17 -2287.95 8061.57 -4422.34 -61.42 -512.97 -478.18 -285.51 -1871.19 -952.03 1028.81 -307.11 1289.85 -2226.53 0 -261.07 -232.91 -90.36 -78.94c9.44,8.25 -1045.02,464.95 -1629.41,465.4 -1304.27,-14.9 -2399.29,-416.57 -3089.33,-1250.43l-402.59 -517.59 1633.91 -1088.08c361.15,384.14 780.24,695.87 1305.21,875.26 1602.07,337.83 1669.25,-442.5 -152.91,-1056.71zm9150.12 1871.1l1704.45 -6065.37 -2763.97 3009.65 1059.52 3055.72z"/>
  <path class="fil13" d="M15482.92 10186.41c-1060.7,-315.85 -1453.12,-1120.12 -1244.43,-2336.82 323.32,-1446.34 1716.32,-2111.29 3424.25,-1965.49 865.64,53.28 1514.45,371.55 2011.56,875.26l-1167.01 1627.67c-368.54,-286.63 -934.75,-580.95 -1428.05,-629.57 -1156.78,-92.13 -1031.37,694.83 -153.55,829.19 716.9,119.37 1838.09,731.12 2026.91,1474.12l1028.8 -4330.21 2257.24 -138.2 -629.57 2748.61 2410.79 -2871.45 5144.05 -368.53 -2287.95 8061.57 -4422.34 -61.42 -798.48 -2349.37 -952.03 1028.81 -307.11 1289.85 -2226.53 0 184.26 -737.06c-636.91,614.83 -1364.4,890.01 -2165.1,890.61 -1304.26,-14.9 -2288.89,-455.99 -2978.94,-1289.85l1120.94 -1566.25c361.15,384.14 780.24,695.87 1305.21,875.26 1602.07,337.83 1669.25,-442.5 -152.91,-1056.71zm9150.12 1871.1l1704.44 -6065.37 -2763.96 3009.65 1059.52 3055.72z"/>
  <path class="fil7" d="M30213.29 13641.27l-2595.06 -15.36 -308.38 -280.21 2580.97 -7781.35 3531.74 -276.4c1443.44,-124.53 3252.77,851.37 3193.92,2502.92 79.51,1638.15 -1293.85,3560.95 -3696.8,3612.35l-2061.47 42.23 -644.93 2195.82zm3393.58 -5059.57c127.47,-798.5 -345.01,-1133.73 -1596.96,-1036.49l-583.5 1942.46c1133.13,113.55 1948.28,-98.12 2180.46,-905.97z"/>
  <path class="fil13" d="M29700.31 13163.1l-2595.06 -15.36 2272.6 -8061.56 3531.74 -276.4c1443.43,-124.53 3252.76,851.37 3193.92,2502.92 79.51,1638.15 -1293.85,3560.95 -3696.8,3612.35l-2061.47 42.23 -644.92 2195.82zm3393.58 -5059.57c127.47,-798.49 -345.01,-1133.73 -1596.96,-1036.49l-583.5 1942.46c1133.13,113.55 1948.28,-98.12 2180.46,-905.97z"/>
  <path class="fil16" d="M14423.27 8808.76c180.1,-1504.49 1212.45,-2399.66 2266.97,-2712.49 -1136.08,72.63 -2447.69,1012.89 -2266.97,2712.49z"/>
  <path class="fil16" d="M21855.93 5836.69c-1750.5,78.85 -2003.23,1926 -2515.36,3161.94l764.86 -3083.09 1750.5 -78.85z"/>
  <path class="fil16" d="M28394.67 5355.7c-1749.4,178.63 -2121.95,2021.77 -2580.4,3587.73l804.28 -3406.38 1776.12 -181.35z"/>
  <path class="fil16" d="M25969.86 5437.12c-1910.47,399.75 -2194.44,1001.46 -3684.33,2468.04l1908.2 -2286.69 1776.12 -181.35z"/>
  <path class="fil17" d="M31314.7 5078.32c-1749.4,178.62 -2353.33,2780.77 -2876.09,4260.16l1099.96 -4078.81 1776.12 -181.35z"/>
  <path class="fil18" d="M13761.88 17670.64c482.96,28.66 981.31,58.75 1491.18,88.2 18.41,-191.78 31.05,-382.91 49.46,-574.35l-324.75 -382.2 -641.23 336.22c10.87,-146.62 25.58,-293.94 36.47,-440.9 10.86,-146.64 25.65,-293.95 36.48,-440.94 10.91,-148.01 24.64,-295.42 36.48,-443.02 11.83,-147.42 27.54,-295.7 40.34,-443.39l-322.82 -388.98 -218.06 382.14c-14.49,193.63 -33.79,387 -49.26,579.52 -15.45,192.33 -29.92,385.96 -45.4,578.45 -15.41,191.63 123.78,488.21 -47.33,574.65l-364.87 184.31 323.32 390.29zm2503.43 196.02c325.14,19.31 629.08,-103.66 860.49,-323.49 115.48,-109.7 211.54,-244.02 283.21,-395.46 71.46,-150.98 122.1,-319.25 136.64,-497.43 0.16,-2.05 -0.24,-4.46 -0.03,-6.85 16.42,-178.2 -4,-348.67 -46.16,-504.54 -41.76,-154.41 -112.17,-295.68 -205.56,-412.22 -188.94,-235.75 -471.1,-379.57 -804.07,-383 -329.15,-3.4 -622.71,135.24 -841.52,358.18 -108.88,110.92 -199.97,242.27 -265.84,389.4 -65.66,146.69 -110.58,309.14 -126.86,479.47 -0.29,3.06 -1.75,4.44 -1.9,6.48 -12.56,170.31 4.36,333.55 44.42,482.7 40.11,149.31 107.17,284.44 196.03,400.76 178.09,233.12 444.06,386.58 771.14,406zm55.25 -603.23c-319.4,-15.41 -510.9,-326.66 -479.93,-672.25 0.27,-3.05 -0.2,-4.79 -0.02,-6.82 31.06,-347.3 266.76,-638.57 590.09,-631.45 329.1,7.25 530.16,321.95 495.3,676.1 -0.3,3.06 -1.73,5.13 -1.89,7.18 -29.22,353.09 -276.42,643.02 -603.54,627.24zm2424.7 751.78c425.16,25.15 788.21,-125.87 1066.44,-336.01 16.69,-193.62 38.2,-387.49 55.85,-581.22 17.67,-193.9 39.17,-388.31 57.79,-582.99 -371.41,-11.37 -735.11,-23.06 -1096.9,-34.06 -18.65,171.54 -33.44,343.42 -50.17,514.96 153.94,6.05 307.88,12.45 463.74,18.86 -11.2,103.1 -20.47,207.56 -25.89,309.98 -107.52,64.89 -232.47,95.48 -390.23,87.98 -367.5,-17.46 -597.25,-321.12 -560.5,-726.33 0.25,-2.72 -0.24,-4.46 -0.02,-6.84 36.87,-385.39 322.77,-685.24 661.5,-678.32 230.93,4.71 392.9,96.51 545.45,255.61 145.71,-165.06 293.35,-331.53 442.93,-498.04 -144.93,-139.2 -300.26,-535.88 -721.78,-539.94 -359.92,-3.47 -900.02,287.63 -1141.24,520.4 -119.33,115.14 -217.75,253.44 -291.02,407.34 -73.76,154.9 -120.27,325.88 -136.65,507.18 -0.24,2.72 -1.63,4.05 -1.9,6.84 -18.3,187.95 -2.44,363.26 42.36,521.72 44.88,158.79 121.18,300.48 218.94,419.15 197.88,240.2 501.55,392.43 861.31,413.71zm1234.94 22.58c228.93,12.91 455.94,26.16 688.72,40.47 20.5,-218.46 42.93,-437.61 63.43,-656.42 20.51,-218.82 44.9,-438.34 65.39,-657.18 20.54,-219.53 41.96,-440.01 65.4,-661.04 23.37,-220.49 44.89,-441.19 69.27,-662.14l-328.65 -393.93 -366.19 386.67c-24.34,218.07 -43.92,435.88 -65.32,653.5 -21.49,218.47 -42.85,435.4 -65.31,652.74 -22.35,216.29 -42.93,432.94 -63.37,648.54 -9.04,95.36 -439.04,184.04 -378.79,258.58l315.43 390.23zm1962.35 161.11c642.51,38.77 1115.2,-267.26 1171.29,-825.46 0.27,-2.73 -0.35,-5.18 -0.02,-8.25 27.9,-256.79 -49.63,-439.91 -211.1,-577.85 -160.51,-137.12 -400.78,-228.38 -699.23,-306.98 -356.22,-93.81 -438.83,-151.17 -424.08,-274.11 0.29,-2.37 -2.33,-4.83 -1.94,-8.24 10.89,-95.84 103.46,-170.33 278.59,-166.71 234.79,4.87 490.98,103.74 716.58,285.37 147.74,-175.86 289.72,-352.46 435.55,-530.13 -271.95,-244.16 -614.87,-373.43 -1067.18,-377.93 -625.55,-6.21 -1040.52,347.19 -1090.79,840.63 -0.24,2.38 0.23,5.51 0.02,7.55 -27.86,273.13 59.51,451.41 219.1,582.27 158.61,130.06 400.64,213.58 666.49,289.39 348.34,99.32 432.82,164.77 418.2,276.9 -0.51,3.9 -1.65,4.82 -1.9,7.55 -10.97,116.12 -126.49,180.09 -318.89,170.77 -303.97,-14.71 -577.5,-139.18 -807.05,-358.58 -147.68,156.22 -660.05,79.8 -575.19,536.52 279.82,306.34 833.73,409.66 1291.55,437.28zm1836.98 62.26c255.84,15.13 515.53,30.29 780.98,46.49 18.87,-176.89 38.71,-354.94 58.54,-531.73 19.83,-176.67 41.55,-354.18 60.48,-532.12 18.82,-176.93 36.84,-355.7 56.64,-533.57 19.88,-178.42 39.7,-356.66 60.51,-535.68 290.59,6.42 585.02,12.85 879.46,19.97 26.53,-232.24 53.06,-465.87 83.45,-699.17l-324.07 -386.38 -2189.6 358.52c-22.58,223.14 -47.06,446.96 -71.55,670.42 273.27,6.05 552.32,12.1 831.37,18.5 -18.86,176.49 -36.77,352.74 -54.65,528.43 -17.89,175.88 38.9,379.91 -58.49,526.99l-436.4 659.07 323.31 390.27zm1806.23 107.16c276.98,15.93 555.89,32.22 836.72,48.87 28.47,-240.97 56,-482.4 83.49,-723.97 27.52,-241.8 57.92,-483.16 85.44,-725.8 27.51,-242.52 57.99,-486.46 85.47,-729.36 27.57,-243.72 56.99,-488.03 85.49,-732.23l-322.44 -387.22c-28.45,240.57 -585.15,859.96 -611.7,1100.49 -26.48,239.84 -52.96,479.69 -79.56,719.5 -26.44,238.44 -57.88,477.09 -85.31,714.91 -12.99,112.62 -408,315.87 -400.8,324.54l323.21 390.27zm2675.58 217.06c725.1,43.08 1188.37,-221.25 1557.35,-600.38 -215.57,-162.37 -125.55,-242.82 -337.3,-402.97 -230.64,211.41 -755.38,267.94 -1101.65,251.32 -446.28,-21.43 -717.72,-382.73 -670.46,-826.98 0.25,-2.4 5.12,-2.8 5.76,-8.28 50.76,-432.03 406.97,-777.42 863.04,-767.46 315.59,6.89 513.94,150.09 679.62,372.21 250.01,-157.74 505.81,-316.6 763.55,-477.6 -254.32,-383.07 -749.31,-999.16 -1426.78,-1005.81 -496.57,-4.87 -854.08,508.94 -1182.96,781.68 -163.23,135.37 -301.79,297.59 -403.45,479.02 -101.78,181.67 -170.98,382.03 -191.53,595.21 -0.3,3.09 2.28,5.56 1.93,8.28 -28.17,218.01 -8.66,423.4 49,608.25 58.31,186.92 158.39,353.5 287.33,495.75 258.26,284.92 650.73,470.67 1106.55,497.75zm2981.07 169.51c436.56,25.92 817.67,-48.54 1100.01,-211.54 281.11,-162.29 465.84,-414.45 507.71,-740.78 0.44,-3.44 1.41,-4.54 1.93,-9.36 49.59,-454.73 -390.66,-890.21 -611.9,-1054.62 -215.51,-160.16 -219.36,109.52 -625.31,15.94 -481.1,-110.91 -594.3,-178.71 -577.38,-321.74 0.32,-2.75 1.43,-4.77 1.92,-9 12.95,-111.33 140.38,-199.06 378.99,-193.96 317.52,6.78 665.84,123.93 975.68,336.75 200.09,-204.37 398.28,-411.25 604.18,-617.85l-325.59 -380.35c-216.99,-253.5 -710.4,-59.92 -1137.15,-64.24 -423.41,-4.28 -777.8,96.74 -1031.45,270.16 -252.29,172.49 -412.2,418.75 -447.92,704.92 -0.64,5.14 -3.55,6.24 -3.84,8.64 -39.88,316.89 78.95,527.12 289.06,678.24 215.26,154.81 538.95,249.32 906.3,341.26 469.55,117.53 578.71,195.49 559.9,326.84 -0.39,2.74 0.46,5.67 0,9.01 -18.78,134.55 -171.14,208.61 -434.65,195.76 -409.71,-19.97 -781.03,-166.68 -1090.89,-425.19 -201.86,181.91 -547.7,265.1 -741.83,443.78 373.4,358.7 1081.04,660.44 1702.23,697.33z"/>
  <path class="fil19" d="M13438.56 17278.42l1499.36 88.36 49.17 -574.62 -966.63 -45.74 146.72 -1767.78 -540.56 -5.97 -188.06 2305.74zm2507.81 196.24c660.72,39.57 1220.22,-504.88 1285.23,-1216.1l0.65 -7.09c65.25,-713.95 -388.76,-1292.86 -1057.04,-1299.58 -651.19,-6.55 -1176.13,543.95 -1234.37,1226.5l-0.58 6.77c-58.02,680.04 362.21,1250.93 1006.11,1289.51zm59.33 -603.08c-318.97,-15.29 -510.17,-326.71 -480.12,-672.73l0.6 -6.87c30.1,-346.68 268.36,-637.69 589.1,-630.62 327.92,7.24 526.33,321.31 494.55,675.43l-0.63 7.02c-31.72,353.44 -277.39,643.4 -603.5,627.77zm2421.19 751.63c425.31,25.47 791.98,-125.74 1068.39,-336.06l113.78 -1164.84 -1096.8 -33.95 -48.85 515.43 463.52 18.86 -29.81 310.53c-104.57,64.67 -229.08,95.22 -386.27,87.6 -367.59,-17.81 -599.04,-320.6 -561.2,-726.25l0.68 -7.18c35.91,-384.95 321.34,-685.67 657.65,-678.29 232.21,5.09 393.3,96.98 548.93,255.69l442.24 -498.36c-233.17,-241.38 -518.07,-385.25 -934.56,-389.45 -719.26,-7.24 -1289.62,558.67 -1356.1,1284.33l-0.65 7.11c-68.83,751.15 404.5,1312.07 1119.04,1354.85zm1239.64 22.23l687.02 40.48 263.78 -2636.21 -695.09 -7.66 -255.71 2603.38zm1960.53 161.72c642.09,38.37 1112.33,-267.21 1171.79,-826.33l0.85 -7.84c54.63,-513.68 -311.69,-730.21 -911.58,-884.79 -355.09,-95.12 -438.9,-151.31 -426.31,-274.14l0.79 -7.69c9.84,-96.01 103.45,-171.07 279.44,-167.33 233.86,4.96 490.47,104.1 717.61,285.61l433.34 -529.76c-270.54,-244.39 -615.7,-373.8 -1067.85,-378.42 -626.24,-6.39 -1039.33,347.3 -1088.96,840.63l-0.76 7.58c-54.82,544.94 347.69,719.67 885.9,871.42 348.41,99.53 429.1,165.08 417.41,277.15l-0.81 7.73c-12.09,115.85 -125.22,180.18 -320.81,170.64 -301.98,-14.72 -574.84,-138.8 -806,-358.86l-439.29 467.94c280.62,306.43 695.94,479.01 1155.24,506.46zm1837.29 62.09l782.91 46.14 235.67 -2132.95 880.1 19.96 78.93 -699.53 -2510.48 -27.66 -71.2 670.44 832.19 18.86 -228.14 2104.74zm1807.19 106.51l836.99 49.32 336.2 -2911.16 -848.06 -9.35 -325.12 2871.19zm2678.11 217.74c724.27,43.37 1183.6,-221.36 1551.1,-600.47l-645.79 -483.88c-226.01,211.5 -446.18,348.27 -786.71,332 -451.39,-21.58 -724.35,-382.7 -671.72,-826.81l0.99 -8.47c51.23,-432.45 409.25,-778.08 863.95,-767.98 314.68,7 515.64,150.69 679.59,372.77l766.49 -477.56c-255.21,-383.55 -666.63,-651.82 -1344.69,-658.64 -979.12,-9.85 -1762.87,655.11 -1861.94,1508.53l-0.97 8.35c-101.03,870.32 539.23,1547.63 1449.69,1602.16zm2977.75 169.36c873.15,52.17 1517.74,-299.35 1604.16,-952.16l1.22 -9.15c79.43,-600.06 -419.19,-855.48 -1235.24,-1039.44 -481.67,-112.78 -594.92,-178.66 -576.74,-321.65l1.13 -8.95c14.22,-111.79 141.95,-198.8 381,-193.72 318.05,6.76 666.67,123.52 974.85,336.54l597.09 -617.34c-367.71,-286.52 -837.68,-438.46 -1453.37,-444.74 -850.07,-8.66 -1412.23,401.66 -1483.61,974.84l-1.08 8.82c-78.8,632.84 463.92,838.76 1192.34,1019.48 472.74,118.78 581.97,195.88 565.05,326.48l-1.16 9.01c-17.51,135.01 -172.03,208.93 -437.84,195.98 -409.8,-19.98 -778.49,-166.83 -1089.37,-424.69l-597.37 539.6c376.14,358.7 936.37,563.9 1558.94,601.1z"/>
 </g>
</svg>
